{
  "@quasar/dotenv": {
    "env_development": ".env.DEV",
    "env_production": ".env",
    "common_root_object": "none",
    "create_env_files": true,
    "add_env_to_gitignore": true
  },
  "@quasar/apollo": {
    "graphql_uri": "http://localhost:8000/api/v1.1/"
  }
}